{
  "success": true,
  "messages": null,
  "response": {
    "data": [
      {
        "id": "xx",
        "addressComplement": "xxxxxxxxxxxxxxxx",
        "addressReference": "xxxxxx",
        "birthDate": "1984-05-30T00:00:00",
        "candidate": false,
        "carrier": false,
        "cellPhone1": "(xx)xxxx-xxxx",
        "cellPhone2": null,
        "city": "xxxxxxxxxx",
        "civilStatus": 1,
        "client": true,
        "codeCityId": 12345,
        "codeCountry": "123",
        "collaborator": false,
        "companyPlaceId": null,
        "competitor": false,
        "country": "Brasil",
        "email": "teste@syntesis.com.br",
        "emailNfe": "teste@syntesis.com.br",
        "expert": false,
        "gender": 2,
        "houseLawyer": false,
        "identity": "123456",
        "municipalRegistration": "",
        "name": "xxxxxx xxxxxx",
        "name2": "xxxxx xxxxxx",
        "neighborhood": "xxxxxx",
        "number": "xxxxx",
        "parentsName": "xxxxx xxxxxx",
        "peopleAddressMainId": 5,
        "phone": "(xx)xxxx-xxxx",
        "postalCode": "xxxxx-xxx",
        "ruralProducer": false,
        "situation": 3,
        "state": "xx",
        "stateRegistration": "",
        "stateRegistrationType": 9,
        "status": 1,
        "street": "xxxxx xxxxxx",
        "streetType": "Rua",
        "supervisor": false,
        "supplier": false,
        "syndicate": false,
        "technical": false,
        "txId": "xxxxxxxxxxx",
        "txIdFormated": "xxx.xxx.xxx-xx",
        "typeTxId": 2,
        "unlikeLawyer": false,
        "userId": 4,
        "vendor": false
      },
      {
        "id": 17,
        "addressComplement": "",
        "addressReference": "",
        "birthDate": null,
        "candidate": false,
        "carrier": false,
        "cellPhone1": "(xx)xxxxx-xxxx",
        "cellPhone2": null,
        "city": "xxxxxxxxxx",
        "civilStatus": null,
        "client": true,
        "codeCityId": 123456,
        "codeCountry": "xxxx",
        "collaborator": true,
        "companyPlaceId": null,
        "competitor": false,
        "country": "Brasil",
        "email": "teste@syntesis.com.br",
        "emailNfe": "teste@syntesis.com.br",
        "expert": false,
        "gender": null,
        "houseLawyer": false,
        "identity": "",
        "municipalRegistration": "",
        "name": "xxxxxx xxxx xxxxxxx",
        "name2": "xxxxxx xxxx xxxxxxx",
        "neighborhood": "xxxxx",
        "number": "xxxx",
        "parentsName": "",
        "peopleAddressMainId": 8,
        "phone": "(xx)xxxxx-xxxx",
        "postalCode": "xxxxx-xxx",
        "ruralProducer": false,
        "situation": 3,
        "state": "xx",
        "stateRegistration": "",
        "stateRegistrationType": 9,
        "status": 1,
        "street": "xxxxx xxxxxxx",
        "streetType": "Rua",
        "supervisor": true,
        "supplier": true,
        "syndicate": false,
        "technical": true,
        "txId": "xxxxxxxxxx",
        "txIdFormated": "xxx.xxx.xxx-xx",
        "typeTxId": 2,
        "unlikeLawyer": false,
        "userId": 7,
        "vendor": false
      }
    ],
    "totalRecords": 21986,
    "page": 1,
    "pageSize": 2,
    "totalizers": null,
    "totalPages": 10993
  },
  "dataResponseType": "DataPage`1",
  "elapsedTime": null
}